…
## Helper: convert between-group results to a single tibble

[`tidy_simper_between()`](https://anhsmith.github.io/primertools/reference/tidy_simper_between.md)
stacks the between-group tables into one tibble and adds a `contrast`
column. It also computes `delta_abund = av_abund_1 - av_abund_2` to
indicate which group has the higher average abundance for each taxon.

``` r
d_between <- tidy_simper_between(x, cum_max = 70)

d_between
```

    # A tibble: 89 × 12
       taxon       av_abund_1 av_abund_2 av_diss diss_sd contrib   cum group1 group2
       <chr>            <dbl>      <dbl>   <dbl>   <dbl>   <dbl> <dbl> <chr>  <chr>
     1 Hiatella a…       3.7       16.7    12.6     1.14   16.1   16.1 B      A
     2 Chlamys ze…       0.85       8.8     7.46    1.03    9.57  25.7 B      A
     3 Borniola r…       5.2        3       4.62    0.95    5.92  31.6 B      A
     4 Eatoniella…       5.35       1.45    4.47    0.88    5.73  37.3 B      A
     5 Trichomusc…       5.05       2.65    4.11    0.9     5.28  42.6 B      A
     6 Lamellaria…       0.45       3.85    4.1     0.85    5.26  47.9 B      A
     7 Xymene pus…       0.6        4.35    3.48    1.13    4.46  52.3 B      A
     8 Pisinna ol…       3.65       2.4     3.36    1.02    4.32  56.6 B      A
     9 Crepidula …       2.15       2.25    2.54    1.13    3.26  59.9 B      A
    10 Eatoniella…       2          0.15    2.02    0.87    2.6   62.5 B      A
    # ℹ 79 more rows
    # ℹ 3 more variables: avg_dissimilarity <dbl>, contrast <chr>,
    #   delta_abund <dbl>
…
